[
  "alexbuijs",
  "aturinske",
  "a_akgun",
  "aalakkad",
  "andr3",
  "afontaine",
  "agulina",
  "anna_vovchenko",
  "blabuschagne",
  "cwoolley-gitlab",
  "cngo",
  "dreedy",
  "dpisek",
  "dftian",
  "oregand",
  "dennis",
  "dmishunov",
  "djadmin",
  "donaldcook",
  "dstull",
  "dzubova",
  "ealcantara",
  "ekigbo",
  "farias-gl",
  "fguibert",
  "f_caplette",
  "himkp",
  "xanf",
  "jackie_fraser",
  "jannik_lehmann",
  "jayswain",
  "jerasmus",
  "jiaan",
  "jejacks0n",
  "jivanvl",
  "justin_ho",
  "kushalpandya",
  "laurenbarker",
  "leipert",
  "markrian",
  "wortschi",
  "mlunoe",
  "mikegreiling",
  "mfluharty",
  "mgandres",
  "mrincon",
  "nicolasdular",
  "nmezzopera",
  "ntepluhina",
  "ohoral",
  "pburdette",
  "pslaughter",
  "pgascouvaillancourt",
  "peterhegman",
  "iamphill",
  "rhardarson",
  "rob.hunt",
  "samdbeckham",
  "sming-gitlab",
  "shampton",
  "svedova",
  "sheldonled",
  "psimyn",
  "sstern",
  "timzallmann",
  "thomasrandolph",
  "viktomas",
  "tomquirk",
  "tristan.read",
  "vitallium",
  "zcuddy"
]
